@startuml
	title Daemon Logic Final (after realisation)
	partition "Daemon Process" {
		start
			partition #ea4335 Initialization {
				:socket;
				:bind;
				:listen;
			}
			partition #34a853 Running {
				while (inifinite loop)
					:accept;
					:fork|
					split
						:close accepted connection/
					split again
						partition #fbbc05 "Client Subprocess" {
							start
								:close main connection/
								partition #4285f4 "Command Thread" {
									if (BONJ ?) then (yes)
										:WHO;
										if (username ?) then (got)
											:PASSWD;
											if (good credentials ?) then (yes)
												:WELC;
												while (command != EXIT)
													if (rls ? or rpwd ?)
														:fork;
														:redirect output;
														:execute command;
													elseif (rcd ?)
														if (chdir ?) then (success)
															:CDOK;
														else (fail)
															:NOCD;
														endif
													elseif (upld ?)
														if (filename is writable ?) then (unwritable)
															:UNKWN;
														else (yes)
															:RDY;
															if (port P received ?)
															else (yes)
																partition "Download Thread" {
																	:connect to client at the port P;
																	:write data sent by the client in the file;
																}
															endif
														endif
													elseif (downl ?)
														if (filename ?) then (got)
															if (create is readable ?) then (yes)
																:RDY;
																	partition #fbbc05 Start_server_on_a_“random”_port {
																		repeat
																			partition #ea4335 Temporary_Server {
																				:socket;
																				:bind;
																				:listen;
																			}
																		repeat while (socket is not listenning ?)
																	}
																:send port to the client;
																partition "Upload Thread" {
																	:accept the first connection;
																	:read file and send data to the client;
																}
															else (unreadable)
																:FBDN;
															endif
														endif
													endif
													-[#white]->
												endwhile
											else (no)
												:BYE;
											endif
										endif
									endif
									:close accepted connection/
								}
							end
						}
					endsplit
					-[#white]->
				endwhile
			}
			:close main connection/
		end
	}
@enduml
